{
    "root": {
        "init":{
            "esHosts": "localhost:9200,127.0.0.1:9200"
        }
    },
    "my": {
        "init":{
            "esHosts": "localhost:9200,127.0.0.1:9200"
        }
    },
    "mygroup": {
        "init":{
            "esHosts": "localhost:9200,127.0.0.1:9200"
        },
        "g0":{
            "esHosts": "localhost:9200,127.0.0.1:9200"
        },
        "g1":{
            "esHosts": "localhost:9200,127.0.0.1:9200"
        }
    }
}