{
    "root": {
        "init":{
            "mongoHost": "127.0.0.1:27017",
            "mongoUser": "",
            "mongoPasswd": "",
            "mongoReplicaSet": "",
            "mongoConnSets": "?readPreference=secondaryPreferred",
            "mongoSetSlaveOk": "1"
        }
    },
    "my": {
        "init":{
            "mongoHost": "127.0.0.1:27017"
        }
    },
    "mygroup": {
        "init":{
            "mongoHost": "127.0.0.1:27017"
        },
        "g0":{
            "mongoHost": "127.0.0.1:27017"
        },
        "g1":{
            "mongoHost": "127.0.0.1:27017"
        }
    }
}
