{
    "root": {
        "init":{
            "sphinxHost": "localhost",
            "sphinxPort": 3312,
            "sphinxConnectTimeout":""
        }
    },
    "my": {
        "init":{
            "sphinxHost": "127.0.0.1"
        }
    },
    "mygroup": {
        "init":{
            "sphinxHost": "127.0.0.1"
        },
        "g0":{
            "sphinxHost": "127.0.0.1"
        },
        "g1":{
            "sphinxHost": "127.0.0.1"
        }
    }
}